<svg xmlns="http://www.w3.org/2000/svg" width="51" height="51" viewBox="0 0 51 51">
  <g id="money-bag_1_" data-name="money-bag (1)" transform="translate(0.5 0.5)">
    <path id="Path_14450" data-name="Path 14450" d="M19.141,187.157A34.722,34.722,0,0,0,29.49,185.9a5.02,5.02,0,0,1,1.455-4.6,5.1,5.1,0,0,1,0-7.324,5.1,5.1,0,0,1,0-7.324,5.092,5.092,0,0,1,.559-7.786,20.775,20.775,0,0,0-2.779-2.142,2.87,2.87,0,0,0,.669-1.792,2.93,2.93,0,0,0-2.93-2.93H11.817a2.93,2.93,0,0,0-2.93,2.93,2.871,2.871,0,0,0,.666,1.788A20.966,20.966,0,0,0,0,173.973c0,11.818,10.965,13.184,19.141,13.184Zm-.016-14.219a4.383,4.383,0,0,1-1.449-8.524v-2.159a1.465,1.465,0,1,1,2.93,0v2.169a4.388,4.388,0,0,1,2.914,4.12,1.465,1.465,0,1,1-2.93,0,1.465,1.465,0,1,0-1.465,1.465,4.384,4.384,0,0,1,1.481,8.514v1.31a1.465,1.465,0,0,1-2.93,0v-1.3a4.387,4.387,0,0,1-2.945-4.129,1.465,1.465,0,0,1,2.93,0,1.465,1.465,0,1,0,1.465-1.465Zm0,0" transform="translate(0 -137.156)" fill="#fff" stroke="#fff" stroke-width="1"/>
    <path id="Path_14451" data-name="Path 14451" d="M346.479,467H333.2a2.2,2.2,0,1,0,0,4.395h13.281a2.2,2.2,0,1,0,0-4.395Zm0,0" transform="translate(-298.675 -421.394)" fill="none" stroke="#fff" stroke-width="1"/>
    <path id="Path_14452" data-name="Path 14452" d="M346.479,392H333.2a2.2,2.2,0,1,0,0,4.395h13.281a2.2,2.2,0,1,0,0-4.395Zm0,0" transform="translate(-298.675 -353.718)" fill="none" stroke="#fff" stroke-width="1"/>
    <path id="Path_14453" data-name="Path 14453" d="M346.479,317H333.2a2.2,2.2,0,1,0,0,4.395h13.281a2.2,2.2,0,1,0,0-4.395Zm0,0" transform="translate(-298.675 -286.043)" fill="none" stroke="#fff" stroke-width="1"/>
    <path id="Path_14454" data-name="Path 14454" d="M346.479,242H333.2a2.2,2.2,0,1,0,0,4.395h13.281a2.2,2.2,0,1,0,0-4.395Zm0,0" transform="translate(-298.675 -218.367)" fill="none" stroke="#fff" stroke-width="1"/>
    <path id="Path_14455" data-name="Path 14455" d="M105.378,2.93a4.382,4.382,0,0,0-8.269,0H92.464a1.464,1.464,0,0,0-1.389,1.928l2.287,7.056h15.783l2.287-7.056a1.464,1.464,0,0,0-1.389-1.928Zm0,0" transform="translate(-82.112)" fill="#fff" stroke="#fff" stroke-width="1"/>
  </g>
</svg>
