<svg xmlns="http://www.w3.org/2000/svg" width="44.978" height="41.464" viewBox="0 0 44.978 41.464">
  <g id="XMLID_996_" transform="translate(0 -20)">
    <g id="XMLID_41_" transform="translate(0 20)">
      <path id="XMLID_4218_" d="M310.091,127.688a.878.878,0,0,0,1.242-1.242l-.012-.012a.879.879,0,0,0-1.242,1.242Z" transform="translate(-282.605 -116.849)" fill="#fff"/>
      <path id="XMLID_4221_" d="M41.659,39.151l3.062-3.062a.879.879,0,0,0-.621-1.5H37.752a19.152,19.152,0,1,0-32.143,18.1,19.288,19.288,0,0,0,3.52,2.785L6.483,60.153a.879.879,0,0,0,.764,1.311h4.524a.879.879,0,0,0,.765-.446l1.871-3.306a19.382,19.382,0,0,0,9.487,0l1.871,3.306a.879.879,0,0,0,.765.446h4.524a.878.878,0,0,0,.765-1.311l-2.647-4.676a19.292,19.292,0,0,0,3.52-2.785,19.086,19.086,0,0,0,5.06-8.98H44.1a.879.879,0,0,0,.621-1.5Zm-1.606-.878H33.922l1.926-1.926h6.131ZM11.259,59.707H8.754l1.912-3.378a18.887,18.887,0,0,0,2.019.859Zm18.288,0H27.042l-1.426-2.519a18.887,18.887,0,0,0,2.019-.859Zm1.9-8.257A17.472,17.472,0,0,1,27.6,54.363c-.017.008-.035.016-.052.026l-.031.019a17.167,17.167,0,0,1-3.368,1.411.87.87,0,0,0-.136.04,17.564,17.564,0,0,1-9.721,0,.872.872,0,0,0-.137-.04,17.165,17.165,0,0,1-3.368-1.411l-.031-.019c-.017-.01-.034-.017-.051-.026A17.47,17.47,0,0,1,6.852,51.45,17.394,17.394,0,1,1,35.939,34.589h-.455a.879.879,0,0,0-.621.257l-2.332,2.332A13.535,13.535,0,0,0,31,32.616a.878.878,0,1,0-1.538.849,11.666,11.666,0,0,1,1.419,4.808H27.007a7.909,7.909,0,1,0,0,1.757h3.87a11.76,11.76,0,1,1-6.04-11.189.878.878,0,1,0,.849-1.538,13.626,13.626,0,0,0-8.343-1.559A13.529,13.529,0,1,0,32.534,41.127l2.328,2.328a.879.879,0,0,0,.621.257h.455A17.337,17.337,0,0,1,31.45,51.45ZM22.02,37.494a.878.878,0,0,0-1.2-.322L18.712,38.39a.878.878,0,0,0,0,1.522l2.108,1.217a.878.878,0,0,0,1.249-1.1h3.169A6.1,6.1,0,0,1,23.5,43.5h0a6.148,6.148,0,1,1,1.739-5.227H22.069A.876.876,0,0,0,22.02,37.494Zm13.828,4.461-1.926-1.926h6.131l1.926,1.926Z" transform="translate(0 -20)" fill="#fff"/>
    </g>
  </g>
</svg>
