<svg xmlns="http://www.w3.org/2000/svg" width="50.744" height="50.744" viewBox="0 0 50.744 50.744">
  <g id="XMLID_2749_" transform="translate(0 0)">
    <g id="XMLID_2656_" transform="translate(0.991 0.991)">
      <path id="XMLID_2658_" d="M48.8,19.533a11.445,11.445,0,0,0-20.881-4.324A9.4,9.4,0,0,0,15.055,25.4,7.35,7.35,0,0,0,17.35,39.734H48.66a10.1,10.1,0,0,0,.142-20.2Z" transform="translate(-10 -10)" fill="#777af2"/>
      <g id="XMLID_3949_" transform="translate(12.19 18.653)">
        <path id="XMLID_3960_" d="M133,202.573c0-2.408,5.458-4.361,12.19-4.361s12.19,1.952,12.19,4.361v21.386c0,2.408-5.458,4.361-12.19,4.361S133,226.368,133,223.959Z" transform="translate(-133 -198.212)" fill="#e1eeff"/>
        <g id="Group_1198" data-name="Group 1198">
          <path id="XMLID_3955_" d="M157.381,321.271c0,2.408-5.458,4.361-12.19,4.361S133,323.679,133,321.271v-7.129c0,2.408,5.458,4.361,12.19,4.361s12.19-1.952,12.19-4.361Z" transform="translate(-133 -302.652)" fill="#e1eeff"/>
          <path id="XMLID_3954_" d="M12.19,0c6.733,0,12.19,1.952,12.19,4.361S18.923,8.722,12.19,8.722,0,6.769,0,4.361,5.458,0,12.19,0Z" fill="#e1eeff"/>
        </g>
      </g>
    </g>
    <g id="XMLID_17_" transform="translate(0 0)">
      <path id="XMLID_848_" d="M47.546,12.832a11.018,11.018,0,0,0-6.934-3.259A12.436,12.436,0,0,0,18.538,5.006a10.436,10.436,0,0,0-6.452.006A.991.991,0,1,0,12.7,6.9a8.444,8.444,0,0,1,5.831.22.991.991,0,0,0,1.21-.375,10.454,10.454,0,0,1,19.073,3.947.991.991,0,0,0,.964.827,9.11,9.11,0,0,1-.129,18.219h-1.1V24.005c0-1.142-.734-2.767-4.228-4.017a27.563,27.563,0,0,0-8.954-1.335,27.563,27.563,0,0,0-8.954,1.335c-3.494,1.25-4.228,2.874-4.228,4.017v5.728H8.341a6.358,6.358,0,0,1-1.985-12.4.991.991,0,0,0,.669-1.1,8.5,8.5,0,0,1-.108-1.35,8.411,8.411,0,0,1,.363-2.451.991.991,0,0,0-1.9-.577,10.391,10.391,0,0,0-.448,3.028c0,.286.012.573.036.86a8.341,8.341,0,0,0,3.371,15.97h3.85V45.392c0,1.142.734,2.767,4.228,4.017a27.562,27.562,0,0,0,8.954,1.335,27.562,27.562,0,0,0,8.954-1.335c3.494-1.25,4.228-2.874,4.228-4.017V31.716h1.1a11.092,11.092,0,0,0,7.894-18.884Zm-10.975,18.3c0,.511-.763,1.381-2.913,2.15A25.565,25.565,0,0,1,25.372,34.5a25.565,25.565,0,0,1-8.286-1.219c-2.15-.769-2.913-1.639-2.913-2.15V26.957a11.031,11.031,0,0,0,2.246,1.065,27.563,27.563,0,0,0,8.954,1.335,27.562,27.562,0,0,0,8.954-1.335,11.034,11.034,0,0,0,2.246-1.065Zm-22.4,2.951a11.031,11.031,0,0,0,2.246,1.065,27.563,27.563,0,0,0,8.954,1.335,27.562,27.562,0,0,0,8.954-1.335,11.034,11.034,0,0,0,2.246-1.065v4.177c0,.511-.763,1.381-2.913,2.15a25.565,25.565,0,0,1-8.286,1.219,25.565,25.565,0,0,1-8.286-1.219c-2.15-.769-2.913-1.639-2.913-2.15Zm2.913-12.231a25.563,25.563,0,0,1,8.286-1.219,25.563,25.563,0,0,1,8.286,1.219c2.15.769,2.913,1.639,2.913,2.15s-.763,1.381-2.913,2.15a25.565,25.565,0,0,1-8.286,1.219,25.565,25.565,0,0,1-8.286-1.219c-2.15-.769-2.913-1.639-2.913-2.15S14.935,22.624,17.086,21.855ZM33.658,47.542a25.565,25.565,0,0,1-8.286,1.219,25.565,25.565,0,0,1-8.286-1.219c-2.15-.769-2.913-1.639-2.913-2.15V41.214a11.031,11.031,0,0,0,2.246,1.065,27.563,27.563,0,0,0,8.954,1.335,27.562,27.562,0,0,0,8.954-1.335,11.034,11.034,0,0,0,2.246-1.065v4.177C36.571,45.9,35.808,46.773,33.658,47.542Z" transform="translate(0 0)" fill="#1f276e"/>
      <path id="XMLID_893_" d="M77.851,75.841a.991.991,0,1,0-.7-.29A1,1,0,0,0,77.851,75.841Z" transform="translate(-69.243 -66.539)" fill="#1f276e"/>
    </g>
  </g>
</svg>
