<svg id="cloud" xmlns="http://www.w3.org/2000/svg" width="47.105" height="47.105" viewBox="0 0 47.105 47.105">
  <path id="Path_13087" data-name="Path 13087" d="M111.4,424v1.57a3.14,3.14,0,0,1-3.14,3.14H83.14A3.14,3.14,0,0,1,80,425.57V424Zm0,0" transform="translate(-72.149 -382.391)" fill="none"/>
  <path id="Path_13088" data-name="Path 13088" d="M108.263,8H83.14A3.14,3.14,0,0,0,80,11.14v1.57h31.4V11.14A3.14,3.14,0,0,0,108.263,8Zm0,0" transform="translate(-72.149 -7.215)" fill="none"/>
  <path id="Path_13089" data-name="Path 13089" d="M110.345,170.939a6.248,6.248,0,0,0,4.144-1.57h10.772v-.054a6.275,6.275,0,0,0-.655-12.5,7.851,7.851,0,0,0-14.89,1.6,6.281,6.281,0,0,0,.628,12.529Zm0,0" transform="translate(-93.858 -137.181)" fill="#777af2"/>
  <path id="Path_13090" data-name="Path 13090" d="M14.281,107.14A3.14,3.14,0,1,1,11.14,104,3.14,3.14,0,0,1,14.281,107.14Zm0,0" transform="translate(-7.215 -93.794)" fill="#777af2"/>
  <path id="Path_13091" data-name="Path 13091" d="M14.281,315.14A3.14,3.14,0,1,1,11.14,312,3.14,3.14,0,0,1,14.281,315.14Zm0,0" transform="translate(-7.215 -281.382)" fill="#777af2"/>
  <path id="Path_13092" data-name="Path 13092" d="M414.281,107.14a3.14,3.14,0,1,1-3.14-3.14A3.14,3.14,0,0,1,414.281,107.14Zm0,0" transform="translate(-367.961 -93.794)" fill="#777af2"/>
  <path id="Path_13093" data-name="Path 13093" d="M414.281,315.14a3.14,3.14,0,1,1-3.14-3.14A3.14,3.14,0,0,1,414.281,315.14Zm0,0" transform="translate(-367.961 -281.382)" fill="#777af2"/>
  <g id="Group_886" data-name="Group 886">
    <path id="Path_13094" data-name="Path 13094" d="M73.57,6.281H103.4v3.14h1.57v-5.5A3.93,3.93,0,0,0,101.048,0H75.925A3.93,3.93,0,0,0,72,3.925v5.5h1.57Zm2.355-4.71h25.122A2.355,2.355,0,0,1,103.4,3.925V4.71H73.57V3.925A2.355,2.355,0,0,1,75.925,1.57Zm0,0" transform="translate(-64.934)" fill="#1f276e"/>
    <path id="Path_13095" data-name="Path 13095" d="M103.4,387.14H73.57V384H72v5.5a3.93,3.93,0,0,0,3.925,3.925h25.122a3.93,3.93,0,0,0,3.925-3.925V384H103.4Zm-2.355,4.71H75.925A2.355,2.355,0,0,1,73.57,389.5v-.785H103.4v.785A2.355,2.355,0,0,1,101.048,391.851Zm0,0" transform="translate(-64.934 -346.316)" fill="#1f276e"/>
    <path id="Path_13096" data-name="Path 13096" d="M360,80h1.57v1.57H360Zm0,0" transform="translate(-324.671 -72.149)" fill="#1f276e"/>
    <path id="Path_13097" data-name="Path 13097" d="M328,80h1.57v1.57H328Zm0,0" transform="translate(-295.812 -72.149)" fill="#1f276e"/>
    <path id="Path_13098" data-name="Path 13098" d="M296,80h1.57v1.57H296Zm0,0" transform="translate(-266.952 -72.149)" fill="#1f276e"/>
    <path id="Path_13099" data-name="Path 13099" d="M104,80h1.57v1.57H104Zm0,0" transform="translate(-93.794 -72.149)" fill="#1f276e"/>
    <path id="Path_13100" data-name="Path 13100" d="M219.925,440h-3.14a.785.785,0,0,0,0,1.57h3.14a.785.785,0,1,0,0-1.57Zm0,0" transform="translate(-194.803 -396.821)" fill="#1f276e"/>
    <path id="Path_13101" data-name="Path 13101" d="M102.922,164.439a7.05,7.05,0,0,0,4.432-1.57h10.485a.715.715,0,0,0,.359-.1,7.06,7.06,0,0,0-.5-14,8.636,8.636,0,0,0-16.047,1.649,7.066,7.066,0,0,0,1.274,14.018Zm-.554-12.533a.785.785,0,0,0,.692-.628,7.066,7.066,0,0,1,13.4-1.435.785.785,0,0,0,.706.471,5.489,5.489,0,0,1,.573,10.936.7.7,0,0,0-.181.049h-10.5a.784.784,0,0,0-.519.2,5.5,5.5,0,1,1-4.18-9.589Zm0,0" transform="translate(-86.436 -129.895)" fill="#777af2"/>
    <path id="Path_13102" data-name="Path 13102" d="M3.138,103.779v4a.785.785,0,0,0,.785.785H10.2V107h-5.5v-3.219a3.925,3.925,0,1,0-1.57,0Zm.785-6.2a2.355,2.355,0,1,1-2.355,2.355A2.355,2.355,0,0,1,3.923,97.577Zm0,0" transform="translate(0.002 -86.586)" fill="#777af2"/>
    <path id="Path_13103" data-name="Path 13103" d="M4.708,260.789V257.57H8.634V256H3.923a.785.785,0,0,0-.785.785v4a3.925,3.925,0,1,0,1.57,0Zm-.785,6.2a2.355,2.355,0,1,1,2.355-2.355A2.355,2.355,0,0,1,3.923,266.991Zm0,0" transform="translate(0.002 -230.878)" fill="#777af2"/>
    <path id="Path_13104" data-name="Path 13104" d="M381.5,103.779V107H376v1.57h6.281a.785.785,0,0,0,.785-.785v-4a3.925,3.925,0,1,0-1.57,0Zm.785-6.2a2.355,2.355,0,1,1-2.355,2.355A2.355,2.355,0,0,1,382.281,97.577Zm0,0" transform="translate(-339.101 -86.586)" fill="#777af2"/>
    <path id="Path_13105" data-name="Path 13105" d="M397.5,260.789v-4a.785.785,0,0,0-.785-.785H392v1.57h3.925v3.219a3.925,3.925,0,1,0,1.57,0Zm-.785,6.2a2.355,2.355,0,1,1,2.355-2.355A2.355,2.355,0,0,1,396.71,266.991Zm0,0" transform="translate(-353.531 -230.878)" fill="#777af2"/>
  </g>
</svg>
